%YAML 1.1
%TAG !u! tag:unity3d.com,2011:
--- !u!21 &2100000
Material:
  serializedVersion: 6
  m_ObjectHideFlags: 0
  m_CorrespondingSourceObject: {fileID: 0}
  m_PrefabInstance: {fileID: 0}
  m_PrefabAsset: {fileID: 0}
  m_Name: ClownMedium 1
  m_Shader: {fileID: 4800000, guid: a637f27b9eb99ec45851879705a9df7c, type: 3}
  m_ShaderKeywords: 
  m_LightmapFlags: 4
  m_EnableInstancingVariants: 0
  m_DoubleSidedGI: 0
  m_CustomRenderQueue: -1
  stringTagMap: {}
  disabledShaderPasses: []
  m_SavedProperties:
    serializedVersion: 3
    m_TexEnvs:
    - _BumpMap:
        m_Texture: {fileID: 2800000, guid: 9a472944d590d1e4880681ec8c69e834, type: 3}
        m_Scale: {x: 1, y: 1}
        m_Offset: {x: 0, y: 0}
    - _Cube:
        m_Texture: {fileID: 0}
        m_Scale: {x: 1, y: 1}
        m_Offset: {x: 0, y: 0}
    - _MainTex:
        m_Texture: {fileID: 2800000, guid: c5431aa2b0d51b743a25ecf1b18c6de2, type: 3}
        m_Scale: {x: 1, y: 1}
        m_Offset: {x: 0, y: 0}
    m_Floats:
    - _RimPower: 1.2
    - _Shininess: 0.137
    m_Colors:
    - _Color: {r: 0.41509432, g: 0.32610556, b: 0.15859737, a: 1}
    - _Color2: {r: 0.8432836, g: 0.8432836, b: 0.8432836, a: 1}
    - _ReflectColor: {r: 1, g: 1, b: 1, a: 0.5}
    - _RimColor: {r: 0.9811321, g: 0.76938593, b: 0.50445, a: 0}
    - _SpecColor: {r: 0.8898285, g: 0.9622642, b: 0.54013884, a: 1}
