%YAML 1.1
%TAG !u! tag:unity3d.com,2011:
--- !u!21 &2100000
Material:
  serializedVersion: 6
  m_ObjectHideFlags: 0
  m_CorrespondingSourceObject: {fileID: 0}
  m_PrefabInstance: {fileID: 0}
  m_PrefabAsset: {fileID: 0}
  m_Name: Seahorse
  m_Shader: {fileID: 4800000, guid: a637f27b9eb99ec45851879705a9df7c, type: 3}
  m_ShaderKeywords: 
  m_LightmapFlags: 4
  m_EnableInstancingVariants: 0
  m_DoubleSidedGI: 0
  m_CustomRenderQueue: -1
  stringTagMap: {}
  disabledShaderPasses: []
  m_SavedProperties:
    serializedVersion: 3
    m_TexEnvs:
    - _BumpMap:
        m_Texture: {fileID: 2800000, guid: b2ef42fa3fe32bf49bcf438b2bd39fd3, type: 3}
        m_Scale: {x: 1, y: 1}
        m_Offset: {x: 0, y: 0}
    - _Cube:
        m_Texture: {fileID: 0}
        m_Scale: {x: 1, y: 1}
        m_Offset: {x: 0, y: 0}
    - _MainTex:
        m_Texture: {fileID: 2800000, guid: 14cf1fc9c497adf448647200815153ba, type: 3}
        m_Scale: {x: 1, y: 1}
        m_Offset: {x: 0, y: 0}
    m_Floats:
    - _RimPower: 1.18
    - _Shininess: 0.124
    m_Colors:
    - _Color: {r: 0.9716981, g: 0.41920438, b: 0.041251317, a: 1}
    - _Color2: {r: 0.8432836, g: 0.8432836, b: 0.8432836, a: 1}
    - _ReflectColor: {r: 1, g: 1, b: 1, a: 0.5}
    - _RimColor: {r: 0.6681648, g: 0.74316823, b: 0.990566, a: 0}
    - _SpecColor: {r: 0.44891423, g: 0.9811321, b: 0.95398, a: 1}
