%YAML 1.1
%TAG !u! tag:unity3d.com,2011:
--- !u!1 &8528056356989590327
GameObject:
  m_ObjectHideFlags: 0
  m_CorrespondingSourceObject: {fileID: 0}
  m_PrefabInstance: {fileID: 0}
  m_PrefabAsset: {fileID: 0}
  serializedVersion: 6
  m_Component:
  - component: {fileID: 8528056356989590329}
  - component: {fileID: 8528056356989590328}
  - component: {fileID: 8528056356989590331}
  - component: {fileID: 8528056356989590330}
  - component: {fileID: 8528056356989590325}
  - component: {fileID: 8528056356989590324}
  m_Layer: 0
  m_Name: ImageTargetPrefab
  m_TagString: Untagged
  m_Icon: {fileID: 0}
  m_NavMeshLayer: 0
  m_StaticEditorFlags: 0
  m_IsActive: 1
--- !u!4 &8528056356989590329
Transform:
  m_ObjectHideFlags: 0
  m_CorrespondingSourceObject: {fileID: 0}
  m_PrefabInstance: {fileID: 0}
  m_PrefabAsset: {fileID: 0}
  m_GameObject: {fileID: 8528056356989590327}
  m_LocalRotation: {x: -0.7071068, y: 0, z: 0, w: 0.7071068}
  m_LocalPosition: {x: 0, y: 0, z: 0}
  m_LocalScale: {x: 100, y: 100, z: 100}
  m_Children:
  - {fileID: 8528056356702133204}
  m_Father: {fileID: 0}
  m_RootOrder: 0
  m_LocalEulerAnglesHint: {x: -90, y: 0, z: 0}
--- !u!114 &8528056356989590328
MonoBehaviour:
  m_ObjectHideFlags: 0
  m_CorrespondingSourceObject: {fileID: 0}
  m_PrefabInstance: {fileID: 0}
  m_PrefabAsset: {fileID: 0}
  m_GameObject: {fileID: 8528056356989590327}
  m_Enabled: 1
  m_EditorHideFlags: 0
  m_Script: {fileID: -1631628248, guid: bab6fa851cf5a1a4bba3cec5f191cb8e, type: 3}
  m_Name: 
  m_EditorClassIdentifier: 
  mTrackableName: AllADream
  mPreserveChildSize: 0
  mInitializedInEditor: 1
  mDataSetPath: Vuforia/ARproject.xml
  mAspectRatio: 0.35994396
  mImageTargetType: 0
  mWidth: 100
  mHeight: 35.994396
--- !u!114 &8528056356989590331
MonoBehaviour:
  m_ObjectHideFlags: 0
  m_CorrespondingSourceObject: {fileID: 0}
  m_PrefabInstance: {fileID: 0}
  m_PrefabAsset: {fileID: 0}
  m_GameObject: {fileID: 8528056356989590327}
  m_Enabled: 1
  m_EditorHideFlags: 0
  m_Script: {fileID: 11500000, guid: 5a917f0af64a6423093132dab321c15f, type: 3}
  m_Name: 
  m_EditorClassIdentifier: 
--- !u!114 &8528056356989590330
MonoBehaviour:
  m_ObjectHideFlags: 0
  m_CorrespondingSourceObject: {fileID: 0}
  m_PrefabInstance: {fileID: 0}
  m_PrefabAsset: {fileID: 0}
  m_GameObject: {fileID: 8528056356989590327}
  m_Enabled: 1
  m_EditorHideFlags: 0
  m_Script: {fileID: -1770992566, guid: bab6fa851cf5a1a4bba3cec5f191cb8e, type: 3}
  m_Name: 
  m_EditorClassIdentifier: 
--- !u!23 &8528056356989590325
MeshRenderer:
  m_ObjectHideFlags: 0
  m_CorrespondingSourceObject: {fileID: 0}
  m_PrefabInstance: {fileID: 0}
  m_PrefabAsset: {fileID: 0}
  m_GameObject: {fileID: 8528056356989590327}
  m_Enabled: 1
  m_CastShadows: 1
  m_ReceiveShadows: 1
  m_DynamicOccludee: 1
  m_MotionVectors: 1
  m_LightProbeUsage: 0
  m_ReflectionProbeUsage: 1
  m_RenderingLayerMask: 1
  m_RendererPriority: 0
  m_Materials:
  - {fileID: 0}
  m_StaticBatchInfo:
    firstSubMesh: 0
    subMeshCount: 0
  m_StaticBatchRoot: {fileID: 0}
  m_ProbeAnchor: {fileID: 0}
  m_LightProbeVolumeOverride: {fileID: 0}
  m_ScaleInLightmap: 1
  m_PreserveUVs: 0
  m_IgnoreNormalsForChartDetection: 0
  m_ImportantGI: 0
  m_StitchLightmapSeams: 0
  m_SelectedEditorRenderState: 3
  m_MinimumChartSize: 4
  m_AutoUVMaxDistance: 0.5
  m_AutoUVMaxAngle: 89
  m_LightmapParameters: {fileID: 0}
  m_SortingLayerID: 0
  m_SortingLayer: 0
  m_SortingOrder: 0
--- !u!33 &8528056356989590324
MeshFilter:
  m_ObjectHideFlags: 0
  m_CorrespondingSourceObject: {fileID: 0}
  m_PrefabInstance: {fileID: 0}
  m_PrefabAsset: {fileID: 0}
  m_GameObject: {fileID: 8528056356989590327}
  m_Mesh: {fileID: 0}
--- !u!1001 &8528056356701733204
PrefabInstance:
  m_ObjectHideFlags: 0
  serializedVersion: 2
  m_Modification:
    m_TransformParent: {fileID: 8528056356989590329}
    m_Modifications:
    - target: {fileID: 100000, guid: b3cd7919ec0ceda4fb03d1eacaa034d6, type: 3}
      propertyPath: m_Name
      value: Fish School Goldfish Swimmers Avoidance
      objectReference: {fileID: 0}
    - target: {fileID: 400000, guid: b3cd7919ec0ceda4fb03d1eacaa034d6, type: 3}
      propertyPath: m_LocalPosition.x
      value: 0.031
      objectReference: {fileID: 0}
    - target: {fileID: 400000, guid: b3cd7919ec0ceda4fb03d1eacaa034d6, type: 3}
      propertyPath: m_LocalPosition.y
      value: 0.145
      objectReference: {fileID: 0}
    - target: {fileID: 400000, guid: b3cd7919ec0ceda4fb03d1eacaa034d6, type: 3}
      propertyPath: m_LocalPosition.z
      value: -0.0359
      objectReference: {fileID: 0}
    - target: {fileID: 400000, guid: b3cd7919ec0ceda4fb03d1eacaa034d6, type: 3}
      propertyPath: m_LocalRotation.x
      value: 0.7071068
      objectReference: {fileID: 0}
    - target: {fileID: 400000, guid: b3cd7919ec0ceda4fb03d1eacaa034d6, type: 3}
      propertyPath: m_LocalRotation.y
      value: -0
      objectReference: {fileID: 0}
    - target: {fileID: 400000, guid: b3cd7919ec0ceda4fb03d1eacaa034d6, type: 3}
      propertyPath: m_LocalRotation.z
      value: -0
      objectReference: {fileID: 0}
    - target: {fileID: 400000, guid: b3cd7919ec0ceda4fb03d1eacaa034d6, type: 3}
      propertyPath: m_LocalRotation.w
      value: 0.7071068
      objectReference: {fileID: 0}
    - target: {fileID: 400000, guid: b3cd7919ec0ceda4fb03d1eacaa034d6, type: 3}
      propertyPath: m_RootOrder
      value: 0
      objectReference: {fileID: 0}
    - target: {fileID: 400000, guid: b3cd7919ec0ceda4fb03d1eacaa034d6, type: 3}
      propertyPath: m_LocalEulerAnglesHint.x
      value: 0
      objectReference: {fileID: 0}
    - target: {fileID: 400000, guid: b3cd7919ec0ceda4fb03d1eacaa034d6, type: 3}
      propertyPath: m_LocalEulerAnglesHint.y
      value: 0
      objectReference: {fileID: 0}
    - target: {fileID: 400000, guid: b3cd7919ec0ceda4fb03d1eacaa034d6, type: 3}
      propertyPath: m_LocalEulerAnglesHint.z
      value: 0
      objectReference: {fileID: 0}
    - target: {fileID: 400000, guid: b3cd7919ec0ceda4fb03d1eacaa034d6, type: 3}
      propertyPath: m_LocalScale.x
      value: 0.1
      objectReference: {fileID: 0}
    - target: {fileID: 400000, guid: b3cd7919ec0ceda4fb03d1eacaa034d6, type: 3}
      propertyPath: m_LocalScale.y
      value: 0.10000003
      objectReference: {fileID: 0}
    - target: {fileID: 400000, guid: b3cd7919ec0ceda4fb03d1eacaa034d6, type: 3}
      propertyPath: m_LocalScale.z
      value: 0.10000003
      objectReference: {fileID: 0}
    - target: {fileID: 11400000, guid: b3cd7919ec0ceda4fb03d1eacaa034d6, type: 3}
      propertyPath: _childPrefab.Array.size
      value: 1
      objectReference: {fileID: 0}
    - target: {fileID: 11400000, guid: b3cd7919ec0ceda4fb03d1eacaa034d6, type: 3}
      propertyPath: _positionSphere
      value: 5.03
      objectReference: {fileID: 0}
    - target: {fileID: 11400000, guid: b3cd7919ec0ceda4fb03d1eacaa034d6, type: 3}
      propertyPath: _posBuffer.x
      value: 3.1
      objectReference: {fileID: 0}
    - target: {fileID: 11400000, guid: b3cd7919ec0ceda4fb03d1eacaa034d6, type: 3}
      propertyPath: _posBuffer.y
      value: -3.590002
      objectReference: {fileID: 0}
    - target: {fileID: 11400000, guid: b3cd7919ec0ceda4fb03d1eacaa034d6, type: 3}
      propertyPath: _posBuffer.z
      value: -14.500002
      objectReference: {fileID: 0}
    - target: {fileID: 11400000, guid: b3cd7919ec0ceda4fb03d1eacaa034d6, type: 3}
      propertyPath: _positionSphereDepth
      value: 3.65
      objectReference: {fileID: 0}
    - target: {fileID: 11400000, guid: b3cd7919ec0ceda4fb03d1eacaa034d6, type: 3}
      propertyPath: _positionSphereHeight
      value: 3.37
      objectReference: {fileID: 0}
    - target: {fileID: 11400000, guid: b3cd7919ec0ceda4fb03d1eacaa034d6, type: 3}
      propertyPath: _spawnSphereHeight
      value: 7.62
      objectReference: {fileID: 0}
    - target: {fileID: 11400000, guid: b3cd7919ec0ceda4fb03d1eacaa034d6, type: 3}
      propertyPath: _spawnSphereDepth
      value: 9.72
      objectReference: {fileID: 0}
    - target: {fileID: 11400000, guid: b3cd7919ec0ceda4fb03d1eacaa034d6, type: 3}
      propertyPath: _spawnSphere
      value: 31.2
      objectReference: {fileID: 0}
    - target: {fileID: 11400000, guid: b3cd7919ec0ceda4fb03d1eacaa034d6, type: 3}
      propertyPath: _minScale
      value: 1
      objectReference: {fileID: 0}
    - target: {fileID: 11400000, guid: b3cd7919ec0ceda4fb03d1eacaa034d6, type: 3}
      propertyPath: _maxScale
      value: 1.5
      objectReference: {fileID: 0}
    - target: {fileID: 11400000, guid: b3cd7919ec0ceda4fb03d1eacaa034d6, type: 3}
      propertyPath: _childAmount
      value: 8
      objectReference: {fileID: 0}
    - target: {fileID: 11400000, guid: b3cd7919ec0ceda4fb03d1eacaa034d6, type: 3}
      propertyPath: _updateDivisor
      value: 1
      objectReference: {fileID: 0}
    - target: {fileID: 11400000, guid: b3cd7919ec0ceda4fb03d1eacaa034d6, type: 3}
      propertyPath: _minSpeed
      value: 1.25
      objectReference: {fileID: 0}
    - target: {fileID: 11400000, guid: b3cd7919ec0ceda4fb03d1eacaa034d6, type: 3}
      propertyPath: _maxSpeed
      value: 3
      objectReference: {fileID: 0}
    - target: {fileID: 11400000, guid: b3cd7919ec0ceda4fb03d1eacaa034d6, type: 3}
      propertyPath: _randomPositionTimerMin
      value: 2
      objectReference: {fileID: 0}
    - target: {fileID: 11400000, guid: b3cd7919ec0ceda4fb03d1eacaa034d6, type: 3}
      propertyPath: _childPrefab.Array.data[1]
      value: 
      objectReference: {fileID: 11400000, guid: 665867c1f23963547b4dbb47c6cdfdaa,
        type: 3}
    - target: {fileID: 11400000, guid: b3cd7919ec0ceda4fb03d1eacaa034d6, type: 3}
      propertyPath: _minAnimationSpeed
      value: 1
      objectReference: {fileID: 0}
    - target: {fileID: 11400000, guid: b3cd7919ec0ceda4fb03d1eacaa034d6, type: 3}
      propertyPath: _maxAnimationSpeed
      value: 2
      objectReference: {fileID: 0}
    - target: {fileID: 11400000, guid: b3cd7919ec0ceda4fb03d1eacaa034d6, type: 3}
      propertyPath: _childPrefab.Array.data[0]
      value: 
      objectReference: {fileID: 11400000, guid: 77bf3081fc6481d458b64f5433fb3b11,
        type: 3}
    - target: {fileID: 19800000, guid: b3cd7919ec0ceda4fb03d1eacaa034d6, type: 3}
      propertyPath: InitialModule.startSizeY.minMaxState
      value: 3
      objectReference: {fileID: 0}
    - target: {fileID: 19800000, guid: b3cd7919ec0ceda4fb03d1eacaa034d6, type: 3}
      propertyPath: InitialModule.startSizeZ.minMaxState
      value: 3
      objectReference: {fileID: 0}
    m_RemovedComponents: []
  m_SourcePrefab: {fileID: 100100000, guid: b3cd7919ec0ceda4fb03d1eacaa034d6, type: 3}
--- !u!4 &8528056356702133204 stripped
Transform:
  m_CorrespondingSourceObject: {fileID: 400000, guid: b3cd7919ec0ceda4fb03d1eacaa034d6,
    type: 3}
  m_PrefabInstance: {fileID: 8528056356701733204}
  m_PrefabAsset: {fileID: 0}
